{
    "fluentMethods": true,
    "relationships": [
        {
            "relationshipName": "members",
            "otherEntityName": "members",
            "relationshipType": "many-to-one",
            "otherEntityField": "id"
        },
        {
            "relationshipName": "city",
            "otherEntityName": "city",
            "relationshipType": "many-to-one",
            "otherEntityField": "id"
        }
    ],
    "fields": [
        {
            "fieldName": "rue",
            "fieldType": "String"
        },
        {
            "fieldName": "noPorte",
            "fieldType": "String"
        },
        {
            "fieldName": "mail",
            "fieldType": "String"
        },
        {
            "fieldName": "telephone",
            "fieldType": "String"
        },
        {
            "fieldName": "zipCode",
            "fieldType": "String"
        },
        {
            "fieldName": "autre",
            "fieldType": "String"
        },
        {
            "fieldName": "ville",
            "fieldType": "String"
        },
        {
            "fieldName": "etat",
            "fieldType": "String"
        },
        {
            "fieldName": "actuel",
            "fieldType": "Boolean"
        }
    ],
    "changelogDate": "20200117132706",
    "dto": "mapstruct",
    "service": "serviceClass",
    "entityTableName": "adresses",
    "jpaMetamodelFiltering": false,
    "pagination": "pager"
}
