{
    "fluentMethods": true,
    "relationships": [],
    "fields": [
        {
            "fieldName": "dateEntree",
            "fieldType": "LocalDate"
        },
        {
            "fieldName": "dateSortie",
            "fieldType": "LocalDate"
        }
    ],
    "changelogDate": "20200117132712",
    "dto": "mapstruct",
    "service": "serviceClass",
    "entityTableName": "info_association",
    "jpaMetamodelFiltering": false,
    "pagination": "pager"
}
