{
    "fluentMethods": true,
    "relationships": [
        {
            "relationshipType": "one-to-one",
            "relationshipName": "user",
            "otherEntityName": "user",
            "otherEntityField": "id",
            "ownerSide": true,
            "otherEntityRelationshipName": "userExtra"
        },
        {
            "relationshipName": "profil",
            "otherEntityName": "profil",
            "relationshipType": "many-to-one",
            "otherEntityField": "id",
            "otherEntityRelationshipName": "userExtra"
        },
        {
            "relationshipName": "members",
            "otherEntityName": "members",
            "relationshipType": "one-to-one",
            "otherEntityField": "id",
            "ownerSide": true,
            "otherEntityRelationshipName": "userExtra"
        },
        {
            "relationshipName": "consulat",
            "otherEntityName": "consulat",
            "relationshipType": "many-to-one",
            "otherEntityField": "id",
            "otherEntityRelationshipName": "userExtra"
        }
    ],
    "fields": [
        {
            "fieldName": "telephone",
            "fieldType": "String"
        },
        {
            "fieldName": "photo",
            "fieldType": "byte[]",
            "fieldTypeBlobContent": "any"
        }
    ],
    "changelogDate": "20200117132700",
    "dto": "mapstruct",
    "service": "serviceClass",
    "entityTableName": "user_extra",
    "jpaMetamodelFiltering": false,
    "pagination": "pager",
    "searchEngine": false,
    "databaseType": "sql"
}
